{
  "channels": [
  ],
  "labels": [
    {
      "name": "DataLiftN on",
      "positions": [
        {"index":  1, "state": true}
      ]
    },
    {
      "name": "DataLiftN off",
      "positions": [
        {"index":  1, "state": false}
      ]
    },
    {
      "name": "DataLiftZ on",
      "positions": [
        {"index":  0, "state": true}
      ]
    },
    {
      "name": "DataLiftZ off",
      "positions": [
        {"index":  0, "state": false}
      ]
    },
    {
      "name": "MeshNodeN on",
      "positions": [
        {"index":  3, "state": true}
      ]
    },
    {
      "name": "MeshNodeN off",
      "positions": [
        {"index":  3, "state": false}
      ]
    },
    {
      "name": "MeshNodeZ on",
      "positions": [
        {"index":  2, "state": true}
      ]
    },
    {
      "name": "MeshNodeZ off",
      "positions": [
        {"index":  2, "state": false}
      ]
    }
  ]
}